Version1/03_verif/FPU_ADD_SUB/Xcelium/history.log
xrun(64): 20.09-s001: (c) Copyright 1995-2020 Cadence Design Systems, Inc.
TOOL:	xrun(64)	20.09-s001: Started on Jan 02, 2026 at 00:39:43 EST
xrun
	+xm64bit
	-sv
	-f ./../FPU_ADD_SUB/flist.f
		+incdir+./../FPU_ADD_SUB/lib/
		./../../03_verif/FPU_ADD_SUB/tb_FPU_add_sub.sv
		./../../02_rtl/FPU_ADD_SUB/ADD_SUB_EXP_adjust.sv
		./../../02_rtl/FPU_ADD_SUB/ADD_SUB_EXP_comp.sv
		./../../02_rtl/FPU_ADD_SUB/ADD_SUB_EXP_rounding.sv
		./../../02_rtl/FPU_ADD_SUB/ADD_SUB_EXP_sub.sv
		./../../02_rtl/FPU_ADD_SUB/ADD_SUB_EXP_swap.sv
		./../../02_rtl/FPU_ADD_SUB/ADD_SUB_MAN_ALU.sv
		./../../02_rtl/FPU_ADD_SUB/ADD_SUB_MAN_rounding.sv
		./../../02_rtl/FPU_ADD_SUB/ADD_SUB_MAN_swap.sv
		./../../02_rtl/FPU_ADD_SUB/ADD_SUB_NOR_unit.sv
		./../../02_rtl/FPU_ADD_SUB/ADD_SUB_PSC_unit.sv
		./../../02_rtl/FPU_ADD_SUB/ADD_SUB_SIGN_unit.sv
		./../../02_rtl/FPU_ADD_SUB/FPU_add_sub.sv
		./../../02_rtl/FPU_COMMON/CLA_4bit.sv
		./../../02_rtl/FPU_COMMON/CLA_8bit.sv
		./../../02_rtl/FPU_COMMON/CLA_24bit.sv
		./../../02_rtl/FPU_COMMON/CLS_4bit.sv
		./../../02_rtl/FPU_COMMON/COMP_4bit.sv
		./../../02_rtl/FPU_COMMON/COMP_8bit.sv
		./../../02_rtl/FPU_COMMON/COMP_24bit.sv
		./../../02_rtl/FPU_COMMON/COMP_CLA_24bit.sv
		./../../02_rtl/FPU_COMMON/LOPD_4bit.sv
		./../../02_rtl/FPU_COMMON/LOPD_8bit.sv
		./../../02_rtl/FPU_COMMON/LOPD_16bit.sv
		./../../02_rtl/FPU_COMMON/LOPD_24bit.sv
		./../../02_rtl/FPU_COMMON/SHF_left.sv
		./../../02_rtl/FPU_COMMON/SHF_right.sv
	-top tb_FPU_add_sub
	-access +rwc
	-clean
	-log ./../FPU_ADD_SUB/Xcelium/compile.log
	+nctimescale+1ns/1ps
	+ntb_random_seed=automatic
	-allowredefinition
	-v93

   User defined plus("+") options:
	+ntb_random_seed=automatic

xrun: *W,OPDEPRREN: Command Line Option (+nctimescale+1ns/1ps) is deprecated. Use (+xmtimescale+1ns/1ps) instead.
xrun: *N,CLEAN: Removing existing directory ./xcelium.d.
file: ./../../03_verif/FPU_ADD_SUB/tb_FPU_add_sub.sv
	module worklib.tb_FPU_add_sub:sv
		errors: 0, warnings: 0
file: ./../../02_rtl/FPU_ADD_SUB/ADD_SUB_EXP_adjust.sv
	module worklib.ADD_SUB_EXP_adjust:sv
		errors: 0, warnings: 0
file: ./../../02_rtl/FPU_ADD_SUB/ADD_SUB_EXP_comp.sv
	module worklib.ADD_SUB_EXP_comp:sv
		errors: 0, warnings: 0
file: ./../../02_rtl/FPU_ADD_SUB/ADD_SUB_EXP_rounding.sv
	module worklib.ADD_SUB_EXP_rounding:sv
		errors: 0, warnings: 0
file: ./../../02_rtl/FPU_ADD_SUB/ADD_SUB_EXP_sub.sv
	module worklib.ADD_SUB_EXP_sub:sv
		errors: 0, warnings: 0
file: ./../../02_rtl/FPU_ADD_SUB/ADD_SUB_EXP_swap.sv
	module worklib.ADD_SUB_EXP_swap:sv
		errors: 0, warnings: 0
file: ./../../02_rtl/FPU_ADD_SUB/ADD_SUB_MAN_ALU.sv
	module worklib.ADD_SUB_MAN_ALU:sv
		errors: 0, warnings: 0
file: ./../../02_rtl/FPU_ADD_SUB/ADD_SUB_MAN_rounding.sv
	module worklib.ADD_SUB_MAN_rounding:sv
		errors: 0, warnings: 0
file: ./../../02_rtl/FPU_ADD_SUB/ADD_SUB_MAN_swap.sv
	module worklib.ADD_SUB_MAN_swap:sv
		errors: 0, warnings: 0
file: ./../../02_rtl/FPU_ADD_SUB/ADD_SUB_NOR_unit.sv
	module worklib.ADD_SUB_NOR_unit:sv
		errors: 0, warnings: 0
file: ./../../02_rtl/FPU_ADD_SUB/ADD_SUB_PSC_unit.sv
	module worklib.ADD_SUB_PSC_unit:sv
		errors: 0, warnings: 0
file: ./../../02_rtl/FPU_ADD_SUB/ADD_SUB_SIGN_unit.sv
	module worklib.ADD_SUB_SIGN_unit:sv
		errors: 0, warnings: 0
file: ./../../02_rtl/FPU_ADD_SUB/FPU_add_sub.sv
	module worklib.FPU_add_sub:sv
		errors: 0, warnings: 0
file: ./../../02_rtl/FPU_COMMON/CLA_4bit.sv
	module worklib.CLA_4bit:sv
		errors: 0, warnings: 0
file: ./../../02_rtl/FPU_COMMON/CLA_8bit.sv
	module worklib.CLA_8bit:sv
		errors: 0, warnings: 0
file: ./../../02_rtl/FPU_COMMON/CLA_24bit.sv
	module worklib.CLA_24bit:sv
		errors: 0, warnings: 0
file: ./../../02_rtl/FPU_COMMON/CLS_4bit.sv
	module worklib.CLS_4bit:sv
		errors: 0, warnings: 0
file: ./../../02_rtl/FPU_COMMON/COMP_4bit.sv
	module worklib.COMP_4bit:sv
		errors: 0, warnings: 0
file: ./../../02_rtl/FPU_COMMON/COMP_8bit.sv
	module worklib.COMP_8bit:sv
		errors: 0, warnings: 0
file: ./../../02_rtl/FPU_COMMON/COMP_24bit.sv
	module worklib.COMP_24bit:sv
		errors: 0, warnings: 0
file: ./../../02_rtl/FPU_COMMON/COMP_CLA_24bit.sv
	module worklib.COMP_CLA_24bit:sv
		errors: 0, warnings: 0
	module worklib.COMP_CLA_4bit:sv
		errors: 0, warnings: 0
file: ./../../02_rtl/FPU_COMMON/LOPD_4bit.sv
	module worklib.LOPD_4bit:sv
		errors: 0, warnings: 0
file: ./../../02_rtl/FPU_COMMON/LOPD_8bit.sv
	module worklib.LOPD_8bit:sv
		errors: 0, warnings: 0
file: ./../../02_rtl/FPU_COMMON/LOPD_16bit.sv
	module worklib.LOPD_16bit:sv
		errors: 0, warnings: 0
file: ./../../02_rtl/FPU_COMMON/LOPD_24bit.sv
	module worklib.LOPD_24bit:sv
		errors: 0, warnings: 0
file: ./../../02_rtl/FPU_COMMON/SHF_left.sv
	module worklib.SHF_left:sv
		errors: 0, warnings: 0
file: ./../../02_rtl/FPU_COMMON/SHF_right.sv
	module worklib.SHF_right:sv
		errors: 0, warnings: 0
xmvlog: *W,SPDUSD: Include directory ./../FPU_ADD_SUB/lib/ given but not used.
	Total errors/warnings found outside modules and primitives:
		errors: 0, warnings: 1
	Elaborating the design hierarchy:
		Caching library 'worklib' ....... Done
	Top level design units:
		$unit_0x6832521a
		tb_FPU_add_sub
xmelab: *W,DSEMEL: This SystemVerilog design will be simulated as per IEEE 1800-2009 SystemVerilog simulation semantics. Use -disable_sem2009 option for turning off SV 2009 simulation semantics.
	Building instance overlay tables: .................... Done
	Generating native compiled code:
		worklib.ADD_SUB_NOR_unit:sv <0x60cd39a6>
			streams:   2, words:   917
		worklib.ADD_SUB_EXP_adjust:sv <0x144d02aa>
			streams:   6, words:  1783
		worklib.LOPD_8bit:sv <0x5e0dfd3a>
			streams:   5, words:  2314
		worklib.LOPD_8bit:sv <0x30091c6b>
			streams:   5, words:  2314
		worklib.LOPD_16bit:sv <0x6aa11c83>
			streams:  10, words:  4004
		worklib.LOPD_24bit:sv <0x65e42e8a>
			streams:  15, words:  5494
		worklib.ADD_SUB_MAN_ALU:sv <0x596f415d>
			streams:   9, words:  2873
		worklib.CLS_4bit:sv <0x4a8dfbc8>
			streams:   7, words:  2353
		worklib.ADD_SUB_PSC_unit:sv <0x23c5e4da>
			streams:  10, words:  4206
		worklib.ADD_SUB_SIGN_unit:sv <0x6e521f90>
			streams:   1, words:   370
		worklib.COMP_24bit:sv <0x3c32cc31>
			streams:  13, words:  5452
		worklib.ADD_SUB_MAN_swap:sv <0x640745ad>
			streams:   2, words:   562
		worklib.CLA_4bit:sv <0x0780fced>
			streams:   9, words:  3384
		worklib.CLA_8bit:sv <0x5669dea6>
			streams:  13, words:  4418
		worklib.ADD_SUB_EXP_sub:sv <0x12f56d17>
			streams:   4, words:  1006
		worklib.ADD_SUB_EXP_swap:sv <0x07b4c058>
			streams:   2, words:   559
		worklib.COMP_4bit:sv <0x3d4f3197>
			streams:   2, words:  1737
		worklib.COMP_8bit:sv <0x789ff793>
			streams:   5, words:  1802
		worklib.ADD_SUB_EXP_comp:sv <0x191e7bf0>
			streams:   1, words:   393
		worklib.FPU_add_sub:sv <0x70ce729a>
			streams:  67, words: 18347
		worklib.tb_FPU_add_sub:sv <0x2654c4be>
    TestCase_Display_result_Float("ADD", "ADD_INF", 1.0/0.0, 5.0);
                                                       |
xmvlog_cg: *W,REALDZ (../FPU_ADD_SUB/tb_FPU_add_sub.sv,304|55): Division by zero attempted (type real operator).
    TestCase_Display_result_Float("ADD", "ADD_INF_NEG", -1.0/0.0, 2.0);
                                                            |
xmvlog_cg: *W,REALDZ (../FPU_ADD_SUB/tb_FPU_add_sub.sv,305|60): Division by zero attempted (type real operator).
    TestCase_Display_result_Float("ADD", "ADD_INF_INF", 1.0/0.0, 1.0/0.0);
                                                           |
xmvlog_cg: *W,REALDZ (../FPU_ADD_SUB/tb_FPU_add_sub.sv,306|59): Division by zero attempted (type real operator).
    TestCase_Display_result_Float("ADD", "ADD_INF_INF", 1.0/0.0, 1.0/0.0);
                                                                    |
xmvlog_cg: *W,REALDZ (../FPU_ADD_SUB/tb_FPU_add_sub.sv,306|68): Division by zero attempted (type real operator).
    TestCase_Display_result_Float("ADD", "ADD_INF_NINF", 1.0/0.0, -1.0/0.0);
                                                            |
xmvlog_cg: *W,REALDZ (../FPU_ADD_SUB/tb_FPU_add_sub.sv,307|60): Division by zero attempted (type real operator).
    TestCase_Display_result_Float("ADD", "ADD_INF_NINF", 1.0/0.0, -1.0/0.0);
                                                                      |
xmvlog_cg: *W,REALDZ (../FPU_ADD_SUB/tb_FPU_add_sub.sv,307|70): Division by zero attempted (type real operator).
    TestCase_Display_result_Float("ADD", "ADD_NAN_1", 0.0/0.0, 1.0);
                                                         |
xmvlog_cg: *W,REALDZ (../FPU_ADD_SUB/tb_FPU_add_sub.sv,308|57): Division by zero attempted (type real operator).
    TestCase_Display_result_Float("ADD", "ADD_NAN_2", 0.0/0.0, 0.0/0.0);
                                                         |
xmvlog_cg: *W,REALDZ (../FPU_ADD_SUB/tb_FPU_add_sub.sv,309|57): Division by zero attempted (type real operator).
    TestCase_Display_result_Float("ADD", "ADD_NAN_2", 0.0/0.0, 0.0/0.0);
                                                                  |
xmvlog_cg: *W,REALDZ (../FPU_ADD_SUB/tb_FPU_add_sub.sv,309|66): Division by zero attempted (type real operator).
			streams:  16, words: 62748
		worklib.SHF_right:sv <0x54b9e394>
			streams:   7, words:  4020
		worklib.CLA_24bit:sv <0x59293138>
			streams:  44, words: 14667
		worklib.SHF_left:sv <0x5517201f>
			streams:   7, words:  3911
		worklib.ADD_SUB_MAN_rounding:sv <0x150cdf4c>
			streams:  31, words: 12810
		worklib.ADD_SUB_EXP_rounding:sv <0x31fd9779>
			streams:   9, words:  3824
		worklib.\$unit_0x6832521a :compilation_unit <0x38d1aa44>
			streams:  11, words: 10429
	Building instance specific data structures.
	Loading native compiled code:     .................... Done
	Design hierarchy summary:
		                 Instances  Unique
		Modules:                45      25
		Registers:             346     237
		Scalar wires:          300       -
		Expanded wires:         80       5
		Vectored wires:        203       -
		Initial blocks:          6       6
		Parallel blocks:         1       1
		Cont. assignments:     252     107
		Pseudo assignments:    155     144
		Compilation units:       1       1
		Simulation timescale:  1ps
	Writing initial simulation snapshot: worklib.tb_FPU_add_sub:sv
Loading snapshot worklib.tb_FPU_add_sub:sv .................... Done
xmsim: *W,DSEM2009: This SystemVerilog design is simulated as per IEEE 1800-2009 SystemVerilog simulation semantics. Use -disable_sem2009 option for turning off SV 2009 simulation semantics.
xcelium> source /opt/cadence/XCELIUM2009/tools/xcelium/files/xmsimrc
xcelium> run
==========[ (0.0 & 0.0) ]==========
[ZERO][ADD]i_32_a=00000000 (0.000000000000000000000000) + i_32_b=00000000 (0.000000000000000000000000) 	| o_32_s=00000000 (0.000000000000000000000000) 	| o_ov_flow=0, o_un_flow=0
=> PASS: expect=0.000000000000000000000000 (00000000), dut=0.000000000000000000000000 (00000000), rounding_error=0.00000000 % (exp_error = 0.00001192 %)
[ZERO][ADD]i_32_a=00000000 (0.000000000000000000000000) + i_32_b=00000000 (0.000000000000000000000000) 	| o_32_s=00000000 (0.000000000000000000000000) 	| o_ov_flow=0, o_un_flow=0
=> PASS: expect=0.000000000000000000000000 (00000000), dut=0.000000000000000000000000 (00000000), rounding_error=0.00000000 % (exp_error = 0.00001192 %)
[ZERO][SUB]i_32_a=00000000 (0.000000000000000000000000) - i_32_b=00000000 (0.000000000000000000000000) 	| o_32_s=00000000 (0.000000000000000000000000) 	| o_ov_flow=0, o_un_flow=0
=> PASS: expect=0.000000000000000000000000 (00000000), dut=0.000000000000000000000000 (00000000), rounding_error=0.00000000 % (exp_error = 0.00001192 %)
[ZERO][SUB]i_32_a=00000000 (0.000000000000000000000000) - i_32_b=00000000 (0.000000000000000000000000) 	| o_32_s=00000000 (0.000000000000000000000000) 	| o_ov_flow=0, o_un_flow=0
=> PASS: expect=0.000000000000000000000000 (00000000), dut=0.000000000000000000000000 (00000000), rounding_error=0.00000000 % (exp_error = 0.00001192 %)
==========[ (0.0 & -0.0) ]==========
[ZERO][ADD]i_32_a=00000000 (0.000000000000000000000000) + i_32_b=80000000 (-0.000000000000000000000000) 	| o_32_s=00000000 (0.000000000000000000000000) 	| o_ov_flow=0, o_un_flow=0
=> PASS: expect=0.000000000000000000000000 (00000000), dut=0.000000000000000000000000 (00000000), rounding_error=0.00000000 % (exp_error = 0.00001192 %)
[ZERO][ADD]i_32_a=80000000 (-0.000000000000000000000000) + i_32_b=00000000 (0.000000000000000000000000) 	| o_32_s=80000000 (-0.000000000000000000000000) 	| o_ov_flow=0, o_un_flow=0
=> PASS: expect=0.000000000000000000000000 (00000000), dut=-0.000000000000000000000000 (80000000), rounding_error=0.00000000 % (exp_error = 0.00001192 %)
[ZERO][SUB]i_32_a=00000000 (0.000000000000000000000000) - i_32_b=80000000 (-0.000000000000000000000000) 	| o_32_s=00000000 (0.000000000000000000000000) 	| o_ov_flow=0, o_un_flow=0
=> PASS: expect=0.000000000000000000000000 (00000000), dut=0.000000000000000000000000 (00000000), rounding_error=0.00000000 % (exp_error = 0.00001192 %)
[ZERO][SUB]i_32_a=80000000 (-0.000000000000000000000000) - i_32_b=00000000 (0.000000000000000000000000) 	| o_32_s=80000000 (-0.000000000000000000000000) 	| o_ov_flow=0, o_un_flow=0
=> PASS: expect=-0.000000000000000000000000 (80000000), dut=-0.000000000000000000000000 (80000000), rounding_error=0.00000000 % (exp_error = 0.00001192 %)
==========[ (0.0 & -0.0) ]==========
[ZERO][ADD]i_32_a=4016a197 (2.353612661361694335937500) + i_32_b=4016a197 (2.353612661361694335937500) 	| o_32_s=4096a197 (4.707225322723388671875000) 	| o_ov_flow=0, o_un_flow=0
=> PASS: expect=4.707225322723388671875000 (4096a197), dut=4.707225322723388671875000 (4096a197), rounding_error=0.00000000 % (exp_error = 0.00001192 %)
[ZERO][ADD]i_32_a=4016a197 (2.353612661361694335937500) + i_32_b=4016a197 (2.353612661361694335937500) 	| o_32_s=4096a197 (4.707225322723388671875000) 	| o_ov_flow=0, o_un_flow=0
=> PASS: expect=4.707225322723388671875000 (4096a197), dut=4.707225322723388671875000 (4096a197), rounding_error=0.00000000 % (exp_error = 0.00001192 %)
[ZERO][SUB]i_32_a=4016a197 (2.353612661361694335937500) - i_32_b=4016a197 (2.353612661361694335937500) 	| o_32_s=00000000 (0.000000000000000000000000) 	| o_ov_flow=0, o_un_flow=0
=> PASS: expect=0.000000000000000000000000 (00000000), dut=0.000000000000000000000000 (00000000), rounding_error=0.00000000 % (exp_error = 0.00001192 %)
[ZERO][SUB]i_32_a=4016a197 (2.353612661361694335937500) - i_32_b=4016a197 (2.353612661361694335937500) 	| o_32_s=00000000 (0.000000000000000000000000) 	| o_ov_flow=0, o_un_flow=0
=> PASS: expect=0.000000000000000000000000 (00000000), dut=0.000000000000000000000000 (00000000), rounding_error=0.00000000 % (exp_error = 0.00001192 %)
==========[ (0.0 & -0.0) ]==========
[ZERO][ADD]i_32_a=40aed834 (5.463891983032226562500000) + i_32_b=40aed834 (5.463891983032226562500000) 	| o_32_s=412ed834 (10.927783966064453125000000) 	| o_ov_flow=0, o_un_flow=0
=> PASS: expect=10.927783966064453125000000 (412ed834), dut=10.927783966064453125000000 (412ed834), rounding_error=0.00000000 % (exp_error = 0.00001192 %)
[ZERO][ADD]i_32_a=40aed834 (5.463891983032226562500000) + i_32_b=40aed834 (5.463891983032226562500000) 	| o_32_s=412ed834 (10.927783966064453125000000) 	| o_ov_flow=0, o_un_flow=0
=> PASS: expect=10.927783966064453125000000 (412ed834), dut=10.927783966064453125000000 (412ed834), rounding_error=0.00000000 % (exp_error = 0.00001192 %)
[ZERO][SUB]i_32_a=40aed834 (5.463891983032226562500000) - i_32_b=40aed834 (5.463891983032226562500000) 	| o_32_s=00000000 (0.000000000000000000000000) 	| o_ov_flow=0, o_un_flow=0
=> PASS: expect=0.000000000000000000000000 (00000000), dut=0.000000000000000000000000 (00000000), rounding_error=0.00000000 % (exp_error = 0.00001192 %)
[ZERO][SUB]i_32_a=40aed834 (5.463891983032226562500000) - i_32_b=40aed834 (5.463891983032226562500000) 	| o_32_s=00000000 (0.000000000000000000000000) 	| o_ov_flow=0, o_un_flow=0
=> PASS: expect=0.000000000000000000000000 (00000000), dut=0.000000000000000000000000 (00000000), rounding_error=0.00000000 % (exp_error = 0.00001192 %)
==========[ (inf & inf) ]==========
[INF][ADD]i_32_a=7f800000 (inf) + i_32_b=7f800000 (inf) 	| o_32_s=7f800000 (inf) 	| o_ov_flow=0, o_un_flow=0
=> PASS: expect=inf (7f800000), dut=inf (7f800000), rounding_error=0.00000000 % (exp_error = 0.00001192 %)
[INF][ADD]i_32_a=7f800000 (inf) + i_32_b=7f800000 (inf) 	| o_32_s=7f800000 (inf) 	| o_ov_flow=0, o_un_flow=0
=> PASS: expect=inf (7f800000), dut=inf (7f800000), rounding_error=0.00000000 % (exp_error = 0.00001192 %)
[INF][SUB]i_32_a=7f800000 (inf) - i_32_b=7f800000 (inf) 	| o_32_s=00400000 (0.000000000000000000000000) 	| o_ov_flow=0, o_un_flow=0
=> FAIL: expect=-nan (ffc00000), dut=0.000000000000000000000000 (00400000), rounding_error=100.00000000 % (exp_error = 0.00001192 %)
[INF][SUB]i_32_a=7f800000 (inf) - i_32_b=7f800000 (inf) 	| o_32_s=00400000 (0.000000000000000000000000) 	| o_ov_flow=0, o_un_flow=0
=> FAIL: expect=-nan (ffc00000), dut=0.000000000000000000000000 (00400000), rounding_error=100.00000000 % (exp_error = 0.00001192 %)
==========[ (-inf & -inf) ]==========
[INF][ADD]i_32_a=ff800000 (-inf) + i_32_b=ff800000 (-inf) 	| o_32_s=ff800000 (-inf) 	| o_ov_flow=0, o_un_flow=0
=> PASS: expect=-inf (ff800000), dut=-inf (ff800000), rounding_error=0.00000000 % (exp_error = 0.00001192 %)
[INF][ADD]i_32_a=ff800000 (-inf) + i_32_b=ff800000 (-inf) 	| o_32_s=ff800000 (-inf) 	| o_ov_flow=0, o_un_flow=0
=> PASS: expect=-inf (ff800000), dut=-inf (ff800000), rounding_error=0.00000000 % (exp_error = 0.00001192 %)
[INF][SUB]i_32_a=ff800000 (-inf) - i_32_b=ff800000 (-inf) 	| o_32_s=80400000 (-0.000000000000000000000000) 	| o_ov_flow=0, o_un_flow=0
=> FAIL: expect=-nan (ffc00000), dut=-0.000000000000000000000000 (80400000), rounding_error=100.00000000 % (exp_error = 0.00001192 %)
[INF][SUB]i_32_a=ff800000 (-inf) - i_32_b=ff800000 (-inf) 	| o_32_s=80400000 (-0.000000000000000000000000) 	| o_ov_flow=0, o_un_flow=0
=> FAIL: expect=-nan (ffc00000), dut=-0.000000000000000000000000 (80400000), rounding_error=100.00000000 % (exp_error = 0.00001192 %)
==========[ (inf & -inf) ]==========
[INF][ADD]i_32_a=ff800000 (-inf) + i_32_b=7f800000 (inf) 	| o_32_s=ffc00000 (-nan) 	| o_ov_flow=0, o_un_flow=0
=> PASS: expect=-nan (ffc00000), dut=-nan (ffc00000), rounding_error=0.00000000 % (exp_error = 0.00001192 %)
[INF][ADD]i_32_a=7f800000 (inf) + i_32_b=ff800000 (-inf) 	| o_32_s=7fc00000 (nan) 	| o_ov_flow=0, o_un_flow=0
=> PASS: expect=-nan (ffc00000), dut=nan (7fc00000), rounding_error=0.00000000 % (exp_error = 0.00001192 %)
[INF][SUB]i_32_a=ff800000 (-inf) - i_32_b=7f800000 (inf) 	| o_32_s=80000000 (-0.000000000000000000000000) 	| o_ov_flow=0, o_un_flow=0
=> FAIL: expect=-inf (ff800000), dut=-0.000000000000000000000000 (80000000), rounding_error=100.00000000 % (exp_error = 0.00001192 %)
[INF][SUB]i_32_a=7f800000 (inf) - i_32_b=ff800000 (-inf) 	| o_32_s=00000000 (0.000000000000000000000000) 	| o_ov_flow=0, o_un_flow=0
=> FAIL: expect=inf (7f800000), dut=0.000000000000000000000000 (00000000), rounding_error=100.00000000 % (exp_error = 0.00001192 %)
==========[ (inf & 0) ]==========
[INF][ADD]i_32_a=7f800000 (inf) + i_32_b=00000000 (0.000000000000000000000000) 	| o_32_s=7f800000 (inf) 	| o_ov_flow=0, o_un_flow=0
=> PASS: expect=inf (7f800000), dut=inf (7f800000), rounding_error=0.00000000 % (exp_error = 0.00001192 %)
[INF][ADD]i_32_a=00000000 (0.000000000000000000000000) + i_32_b=7f800000 (inf) 	| o_32_s=7f800000 (inf) 	| o_ov_flow=0, o_un_flow=0
=> PASS: expect=inf (7f800000), dut=inf (7f800000), rounding_error=0.00000000 % (exp_error = 0.00001192 %)
[INF][SUB]i_32_a=7f800000 (inf) - i_32_b=00000000 (0.000000000000000000000000) 	| o_32_s=7f800000 (inf) 	| o_ov_flow=0, o_un_flow=0
=> PASS: expect=inf (7f800000), dut=inf (7f800000), rounding_error=0.00000000 % (exp_error = 0.00001192 %)
[INF][SUB]i_32_a=00000000 (0.000000000000000000000000) - i_32_b=7f800000 (inf) 	| o_32_s=ff800000 (-inf) 	| o_ov_flow=0, o_un_flow=0
=> PASS: expect=-inf (ff800000), dut=-inf (ff800000), rounding_error=0.00000000 % (exp_error = 0.00001192 %)
==========[ (-inf & 0) ]==========
[INF][ADD]i_32_a=ff800000 (-inf) + i_32_b=00000000 (0.000000000000000000000000) 	| o_32_s=ff800000 (-inf) 	| o_ov_flow=0, o_un_flow=0
=> PASS: expect=-inf (ff800000), dut=-inf (ff800000), rounding_error=0.00000000 % (exp_error = 0.00001192 %)
[INF][ADD]i_32_a=00000000 (0.000000000000000000000000) + i_32_b=ff800000 (-inf) 	| o_32_s=ff800000 (-inf) 	| o_ov_flow=0, o_un_flow=0
=> PASS: expect=-inf (ff800000), dut=-inf (ff800000), rounding_error=0.00000000 % (exp_error = 0.00001192 %)
[INF][SUB]i_32_a=ff800000 (-inf) - i_32_b=00000000 (0.000000000000000000000000) 	| o_32_s=ff800000 (-inf) 	| o_ov_flow=0, o_un_flow=0
=> PASS: expect=-inf (ff800000), dut=-inf (ff800000), rounding_error=0.00000000 % (exp_error = 0.00001192 %)
[INF][SUB]i_32_a=00000000 (0.000000000000000000000000) - i_32_b=ff800000 (-inf) 	| o_32_s=7f800000 (inf) 	| o_ov_flow=0, o_un_flow=0
=> PASS: expect=inf (7f800000), dut=inf (7f800000), rounding_error=0.00000000 % (exp_error = 0.00001192 %)
==========[ (inf & Number) ]==========
[INF][ADD]i_32_a=7f800000 (inf) + i_32_b=40533333 (3.299999952316284179687500) 	| o_32_s=7f800000 (inf) 	| o_ov_flow=0, o_un_flow=0
=> PASS: expect=inf (7f800000), dut=inf (7f800000), rounding_error=0.00000000 % (exp_error = 0.00001192 %)
[INF][ADD]i_32_a=40533333 (3.299999952316284179687500) + i_32_b=7f800000 (inf) 	| o_32_s=7f800000 (inf) 	| o_ov_flow=0, o_un_flow=0
=> PASS: expect=inf (7f800000), dut=inf (7f800000), rounding_error=0.00000000 % (exp_error = 0.00001192 %)
[INF][SUB]i_32_a=7f800000 (inf) - i_32_b=40533333 (3.299999952316284179687500) 	| o_32_s=7f800000 (inf) 	| o_ov_flow=0, o_un_flow=0
=> PASS: expect=inf (7f800000), dut=inf (7f800000), rounding_error=0.00000000 % (exp_error = 0.00001192 %)
[INF][SUB]i_32_a=40533333 (3.299999952316284179687500) - i_32_b=7f800000 (inf) 	| o_32_s=ff800000 (-inf) 	| o_ov_flow=0, o_un_flow=0
=> PASS: expect=-inf (ff800000), dut=-inf (ff800000), rounding_error=0.00000000 % (exp_error = 0.00001192 %)
==========[ (-inf & Number) ]==========
[INF][ADD]i_32_a=ff800000 (-inf) + i_32_b=40533333 (3.299999952316284179687500) 	| o_32_s=ff800000 (-inf) 	| o_ov_flow=0, o_un_flow=0
=> PASS: expect=-inf (ff800000), dut=-inf (ff800000), rounding_error=0.00000000 % (exp_error = 0.00001192 %)
[INF][ADD]i_32_a=40533333 (3.299999952316284179687500) + i_32_b=ff800000 (-inf) 	| o_32_s=ff800000 (-inf) 	| o_ov_flow=0, o_un_flow=0
=> PASS: expect=-inf (ff800000), dut=-inf (ff800000), rounding_error=0.00000000 % (exp_error = 0.00001192 %)
[INF][SUB]i_32_a=ff800000 (-inf) - i_32_b=40533333 (3.299999952316284179687500) 	| o_32_s=ff800000 (-inf) 	| o_ov_flow=0, o_un_flow=0
=> PASS: expect=-inf (ff800000), dut=-inf (ff800000), rounding_error=0.00000000 % (exp_error = 0.00001192 %)
[INF][SUB]i_32_a=40533333 (3.299999952316284179687500) - i_32_b=ff800000 (-inf) 	| o_32_s=7f800000 (inf) 	| o_ov_flow=0, o_un_flow=0
=> PASS: expect=inf (7f800000), dut=inf (7f800000), rounding_error=0.00000000 % (exp_error = 0.00001192 %)
==========[ (inf & -Number) ]==========
[INF][ADD]i_32_a=7f800000 (inf) + i_32_b=c00ccccd (-2.200000047683715820312500) 	| o_32_s=7f800000 (inf) 	| o_ov_flow=0, o_un_flow=0
=> PASS: expect=inf (7f800000), dut=inf (7f800000), rounding_error=0.00000000 % (exp_error = 0.00001192 %)
[INF][ADD]i_32_a=c00ccccd (-2.200000047683715820312500) + i_32_b=7f800000 (inf) 	| o_32_s=7f800000 (inf) 	| o_ov_flow=0, o_un_flow=0
=> PASS: expect=inf (7f800000), dut=inf (7f800000), rounding_error=0.00000000 % (exp_error = 0.00001192 %)
[INF][SUB]i_32_a=7f800000 (inf) - i_32_b=c00ccccd (-2.200000047683715820312500) 	| o_32_s=7f800000 (inf) 	| o_ov_flow=0, o_un_flow=0
=> PASS: expect=inf (7f800000), dut=inf (7f800000), rounding_error=0.00000000 % (exp_error = 0.00001192 %)
[INF][SUB]i_32_a=c00ccccd (-2.200000047683715820312500) - i_32_b=7f800000 (inf) 	| o_32_s=ff800000 (-inf) 	| o_ov_flow=0, o_un_flow=0
=> PASS: expect=-inf (ff800000), dut=-inf (ff800000), rounding_error=0.00000000 % (exp_error = 0.00001192 %)
==========[ (-inf & -Number) ]==========
[INF][ADD]i_32_a=ff800000 (-inf) + i_32_b=c00ccccd (-2.200000047683715820312500) 	| o_32_s=ff800000 (-inf) 	| o_ov_flow=0, o_un_flow=0
=> PASS: expect=-inf (ff800000), dut=-inf (ff800000), rounding_error=0.00000000 % (exp_error = 0.00001192 %)
[INF][ADD]i_32_a=c00ccccd (-2.200000047683715820312500) + i_32_b=ff800000 (-inf) 	| o_32_s=ff800000 (-inf) 	| o_ov_flow=0, o_un_flow=0
=> PASS: expect=-inf (ff800000), dut=-inf (ff800000), rounding_error=0.00000000 % (exp_error = 0.00001192 %)
[INF][SUB]i_32_a=ff800000 (-inf) - i_32_b=c00ccccd (-2.200000047683715820312500) 	| o_32_s=ff800000 (-inf) 	| o_ov_flow=0, o_un_flow=0
=> PASS: expect=-inf (ff800000), dut=-inf (ff800000), rounding_error=0.00000000 % (exp_error = 0.00001192 %)
[INF][SUB]i_32_a=c00ccccd (-2.200000047683715820312500) - i_32_b=ff800000 (-inf) 	| o_32_s=7f800000 (inf) 	| o_ov_flow=0, o_un_flow=0
=> PASS: expect=inf (7f800000), dut=inf (7f800000), rounding_error=0.00000000 % (exp_error = 0.00001192 %)
==========[ (NaN & -Number) ]==========
[NaN][ADD]i_32_a=7f800001 (nan) + i_32_b=c00ccccd (-2.200000047683715820312500) 	| o_32_s=7f800000 (inf) 	| o_ov_flow=0, o_un_flow=0
=> FAIL: expect=nan (7fc00001), dut=inf (7f800000), rounding_error=100.00000000 % (exp_error = 0.00001192 %)
[NaN][ADD]i_32_a=c00ccccd (-2.200000047683715820312500) + i_32_b=7f800001 (nan) 	| o_32_s=7f800000 (inf) 	| o_ov_flow=0, o_un_flow=0
=> FAIL: expect=nan (7fc00001), dut=inf (7f800000), rounding_error=100.00000000 % (exp_error = 0.00001192 %)
[NaN][SUB]i_32_a=7f800001 (nan) - i_32_b=c00ccccd (-2.200000047683715820312500) 	| o_32_s=7f800000 (inf) 	| o_ov_flow=0, o_un_flow=0
=> FAIL: expect=nan (7fc00001), dut=inf (7f800000), rounding_error=100.00000000 % (exp_error = 0.00001192 %)
